Alcohol vs. Happiness: an Investigation into Alcoholism
…
Then, we joined the datasets using an inner join so we could keep only the years both datasets had in common.

Code

# Inner Joining the data
final_data <- inner_join(happy_final, alc_final, by = c("year", "country"))
final_data

# A tibble: 636 × 4
   country      year happiness_score alcohol_consumption
   <chr>       <dbl>           <dbl>               <dbl>
 1 Afghanistan  2004            NA                 NA   
 2 Afghanistan  2009            47.6                0.21
 3 Afghanistan  2014            39.8                0.21
 4 Afghanistan  2017            26.9                0.21
 5 Angola       2004            NA                  4.89
 6 Angola       2009            NA                  8.16
 7 Angola       2014            NA                  7.96
 8 Angola       2017            NA                  6.94
 9 Albania      2004            NA                  7.65
10 Albania      2009            52.7                7.69
# … with 626 more rows
…
Code

my_model <- lm(happiness_score ~ alcohol_consumption, 
               data = final_data
               )
augment(my_model)

# A tibble: 420 × 9
   .rownames happiness_s…¹ alcoh…² .fitted .resid    .hat .sigma .cooksd .std.…³
   <chr>             <dbl>   <dbl>   <dbl>  <dbl>   <dbl>  <dbl>   <dbl>   <dbl>
 1 2                  47.6    0.21    48.8  -1.19 0.00759   10.4 5.06e-5  -0.115
 2 3                  39.8    0.21    48.8  -8.99 0.00759   10.4 2.89e-3  -0.869
 3 4                  26.9    0.21    48.8 -21.9  0.00759   10.3 1.71e-2  -2.11 
 4 10                 52.7    7.69    56.3  -3.58 0.00250   10.4 1.49e-4  -0.345
 5 11                 46.1    6.74    55.3  -9.23 0.00238   10.4 9.44e-4  -0.889
 6 12                 50      7.17    55.8  -5.76 0.00241   10.4 3.72e-4  -0.555
 7 14                 71      3.15    51.7  19.3  0.00394   10.4 6.83e-3   1.86 
 8 15                 65.7    3.79    52.4  13.3  0.00343   10.4 2.84e-3   1.28 
 9 16                 66      3.9     52.5  13.5  0.00335   10.4 2.85e-3   1.30 
10 18                 64.4    9.09    57.7   6.72 0.00309   10.4 6.50e-4   0.648
# … with 410 more rows, and abbreviated variable names ¹​happiness_score,
#   ²​alcohol_consumption, ³​.std.resid
…
